<?xml version="1.0" encoding="UTF-8" standalone="no"?>
<!-- Created with Inkscape (http://www.inkscape.org/) -->

<svg
   xmlns:osb="http://www.openswatchbook.org/uri/2009/osb"
   xmlns:dc="http://purl.org/dc/elements/1.1/"
   xmlns:cc="http://creativecommons.org/ns#"
   xmlns:rdf="http://www.w3.org/1999/02/22-rdf-syntax-ns#"
   xmlns:svg="http://www.w3.org/2000/svg"
   xmlns="http://www.w3.org/2000/svg"
   xmlns:sodipodi="http://sodipodi.sourceforge.net/DTD/sodipodi-0.dtd"
   xmlns:inkscape="http://www.inkscape.org/namespaces/inkscape"
   width="750"
   height="750"
   id="svg2989"
   version="1.1"
   inkscape:version="0.92.4 (unknown)"
   sodipodi:docname="comb-white-vector.svg"
   inkscape:export-filename="/home/tormi/sites/mesi/src/images/comb-icon.png"
   inkscape:export-xdpi="124.26"
   inkscape:export-ydpi="124.26">
  <defs
     id="defs2991">
    <linearGradient
       id="linearGradient4489"
       osb:paint="solid">
      <stop
         style="stop-color:#000000;stop-opacity:1;"
         offset="0"
         id="stop4491" />
    </linearGradient>
  </defs>
  <sodipodi:namedview
     id="base"
     pagecolor="#ffffff"
     bordercolor="#666666"
     borderopacity="1.0"
     inkscape:pageopacity="0.0"
     inkscape:pageshadow="2"
     inkscape:zoom="0.79527465"
     inkscape:cx="317.19221"
     inkscape:cy="460.53089"
     inkscape:document-units="px"
     inkscape:current-layer="layer1"
     showgrid="true"
     inkscape:window-width="1853"
     inkscape:window-height="1025"
     inkscape:window-x="67"
     inkscape:window-y="27"
     inkscape:window-maximized="1"
     showguides="false"
     inkscape:snap-global="false"
     fit-margin-top="100"
     fit-margin-left="100"
     fit-margin-right="100"
     fit-margin-bottom="100"
     showborder="true"
     inkscape:showpageshadow="false">
    <inkscape:grid
       type="xygrid"
       id="grid5952"
       empspacing="5"
       visible="true"
       enabled="true"
       snapvisiblegridlinesonly="true"
       originx="-43.819828"
       originy="-219.48601" />
  </sodipodi:namedview>
  <metadata
     id="metadata2994">
    <rdf:RDF>
      <cc:Work
         rdf:about="">
        <dc:format>image/svg+xml</dc:format>
        <dc:type
           rdf:resource="http://purl.org/dc/dcmitype/StillImage" />
        <dc:title></dc:title>
        <dc:creator>
          <cc:Agent>
            <dc:title>Tormi Tabor</dc:title>
          </cc:Agent>
        </dc:creator>
      </cc:Work>
    </rdf:RDF>
  </metadata>
  <g
     inkscape:groupmode="layer"
     id="layer2"
     inkscape:label="text"
     transform="translate(-43.819818,-82.87609)">
    <g
       id="g3101">
      <g
         id="g3129"
         inkscape:export-xdpi="90"
         inkscape:export-ydpi="90">
        <g
           inkscape:groupmode="layer"
           id="layer1"
           inkscape:label="image">
          <path
             transform="matrix(-11.781603,-0.11768151,0.11672084,-11.68543,1724.8326,4358.2159)"
             d="m 141.92643,348.28584 -27.44927,16.22881 -27.779192,-15.65737 -0.329922,-31.88616 27.449274,-16.22881 27.77919,15.65736 z"
             inkscape:randomized="0"
             inkscape:rounded="0"
             inkscape:flatsided="true"
             sodipodi:arg2="1.0368511"
             sodipodi:arg1="0.51325227"
             sodipodi:r2="25.066238"
             sodipodi:r1="31.887877"
             sodipodi:cy="332.62848"
             sodipodi:cx="114.14724"
             sodipodi:sides="6"
             id="path5954-4"
             style="color:#000000;display:inline;overflow:visible;visibility:visible;opacity:0.83566434;fill:#ffcc00;fill-opacity:1;fill-rule:nonzero;stroke:none;stroke-width:1;marker:none;enable-background:accumulate"
             sodipodi:type="star"
             inkscape:export-xdpi="122.95836"
             inkscape:export-ydpi="122.95836" />
        </g>
        <g
           id="g3161">
          <g
             id="g3155">
            <rect
               style="opacity:1;fill:none;fill-opacity:0.4;fill-rule:evenodd;stroke:none;stroke-width:0.99999994;stroke-linecap:square;stroke-linejoin:round;stroke-miterlimit:4;stroke-dasharray:0.99999994, 0.99999994;stroke-dashoffset:0;stroke-opacity:1"
               id="rect8336"
               width="553.5636"
               height="204.05083"
               x="45.077637"
               y="329.87561"
               inkscape:export-xdpi="97.475716"
               inkscape:export-ydpi="97.475716" />
          </g>
        </g>
      </g>
    </g>
  </g>
</svg>
